\babel@toc {french}{}
\contentsline {section}{\numberline {1}Les signaux lumineux}{2}
\contentsline {subsection}{\numberline {1.1}L'\oe {}illeton}{2}
\contentsline {subsection}{\numberline {1.2}Signaux lumineux}{2}
\contentsline {section}{\numberline {2}Les indicateurs de direction}{2}
\contentsline {subsection}{\numberline {2.1}Les ID}{2}
\contentsline {section}{\numberline {3}Les pancartes}{3}
\contentsline {section}{\numberline {4}Les signaux de chantier}{3}
\contentsline {section}{\numberline {5}Signalisation m\IeC {\'e}canique}{3}
\contentsline {subsection}{\numberline {5.1}S\IeC {\'e}maphore}{3}
\contentsline {subsection}{\numberline {5.2}Avertissement}{3}
\contentsline {subsection}{\numberline {5.3}Carr\IeC {\'e}}{4}
\contentsline {subsection}{\numberline {5.4}Carr\IeC {\'e} violet}{4}
\contentsline {subsection}{\numberline {5.5}Disque}{4}
\contentsline {subsection}{\numberline {5.6}Ralent 30}{4}
\contentsline {subsection}{\numberline {5.7}Rappel de Ralent 30}{4}
